{
  "file_generated_by": "FlutterFire CLI",
  "purpose": "FirebaseAppID & ProjectID for this Firebase app in this directory",
  "GOOGLE_APP_ID": "1:940022711286:ios:188a06552c2b36f24ffdd7",
  "FIREBASE_PROJECT_ID": "bl-tourist-guide",
  "GCM_SENDER_ID": "940022711286"
}